bayesintrotut
…
Simulate 50 samples from: \(y = 1 + 2 \times x + u,\ u\sim N(0, 20)\).

\(x\) is only drawn once (not 50 times) from: \(x \sim N(0,1)\).

set.seed(888)
n_samples <- 50
n_obs <- 50
x_fix <- rnorm(n = n_obs, 0, 1)
gen_data <- function(n) tibble(u = rnorm(n, 0, 20), x = x_fix, y = 1 + 2 * x_fix + u)
samples <- tibble(id = 1:n_samples)
samples$data <- map(rep.int(n_obs, n_samples), gen_data)

samples

# A tibble: 50 × 2
      id data             
   <int> <list>           
 1     1 <tibble [50 × 3]>
 2     2 <tibble [50 × 3]>
 3     3 <tibble [50 × 3]>
 4     4 <tibble [50 × 3]>
 5     5 <tibble [50 × 3]>
 6     6 <tibble [50 × 3]>
 7     7 <tibble [50 × 3]>
 8     8 <tibble [50 × 3]>
 9     9 <tibble [50 × 3]>
10    10 <tibble [50 × 3]>
# ℹ 40 more rows

samples[[1, "data"]][[1]]

# A tibble: 50 × 3
        u      x      y
    <dbl>  <dbl>  <dbl>
 1  14.0  -1.95   11.1 
 2  -6.79 -1.54   -8.88
 3 -11.4   0.730  -8.90
 4  -3.22 -0.278  -2.78
 5  33.1  -1.66   30.8 
 6   6.45 -0.251   6.94
 7  14.2  -2.17   10.9 
 8  10.2   0.587  12.4 
 9   4.99  0.631   7.25
10 -20.9   1.10  -17.7 
# ℹ 40 more rows

Estimates vary across samples

\[y = a_0 + a_1 \times x + u\]

# A tibble: 50 × 5
      id     a0      a1 plabs       first_sample
   <int>  <dbl>   <dbl> <chr>       <fct>       
 1     1  0.760  4.38   (0.8,4.4)   1           
 2     2  1.76  -0.0400 (1.8,0)     0           
 3     3  6.46   0.738  (6.5,0.7)   0           
 4     4  3.20   0.561  (3.2,0.6)   0           
 5     5  0.328  5.24   (0.3,5.2)   0           
 6     6  0.786  6.17   (0.8,6.2)   0           
 7     7 -0.877 -1.58   (-0.9,-1.6) 0           
 8     8  2.18  -3.30   (2.2,-3.3)  0           
 9     9 -0.345  1.00   (-0.3,1)    0           
10    10 -0.545  3.49   (-0.5,3.5)  0           
# ℹ 40 more rows
…
